{
  "prepare_queue": {
    "installed": [],
    "uninstalled": []
  },
  "config_munge": {
    "files": {
      "config.xml": {
        "parents": {
          "/*": [
            {
              "xml": "<feature name=\"BLE\"><param name=\"ios-package\" value=\"EVOBLE\" /></feature>",
              "count": 1
            },
            {
              "xml": "<feature name=\"Device\"><param name=\"ios-package\" value=\"CDVDevice\" /></feature>",
              "count": 1
            },
            {
              "xml": "<feature name=\"Notification\"><param name=\"ios-package\" value=\"CDVNotification\" /></feature>",
              "count": 1
            },
            {
              "xml": "<feature name=\"CDVShake\"><param name=\"ios-package\" value=\"CDVShake\" /><param name=\"onload\" value=\"true\" /></feature>",
              "count": 1
            },
            {
              "xml": "<feature name=\"SplashScreen\"><param name=\"ios-package\" value=\"CDVSplashScreen\" /><param name=\"onload\" value=\"true\" /></feature>",
              "count": 1
            },
            {
              "xml": "<feature name=\"StatusBar\"><param name=\"ios-package\" value=\"CDVStatusBar\" /><param name=\"onload\" value=\"true\" /></feature>",
              "count": 1
            },
            {
              "xml": "<preference name=\"StatusBarOverlaysWebView\" value=\"true\" />",
              "count": 1
            },
            {
              "xml": "<preference name=\"StatusBarStyle\" value=\"lightcontent\" />",
              "count": 1
            },
            {
              "xml": "<feature name=\"Vibration\"><param name=\"ios-package\" value=\"CDVVibration\" /></feature>",
              "count": 1
            }
          ]
        }
      },
      "*-Info.plist": {
        "parents": {
          "UIBackgroundModes": [
            {
              "xml": "<array><string>bluetooth-central</string></array>",
              "count": 1
            }
          ]
        }
      }
    }
  },
  "installed_plugins": {
    "cordova-plugin-ble": {
      "PACKAGE_NAME": "boomiz.onzedix.fr"
    },
    "cordova-plugin-browsersync": {
      "PACKAGE_NAME": "boomiz.onzedix.fr"
    },
    "cordova-plugin-device": {
      "PACKAGE_NAME": "boomiz.onzedix.fr"
    },
    "cordova-plugin-dialogs": {
      "PACKAGE_NAME": "boomiz.onzedix.fr"
    },
    "cordova-plugin-shake": {
      "PACKAGE_NAME": "boomiz.onzedix.fr"
    },
    "cordova-plugin-splashscreen": {
      "PACKAGE_NAME": "boomiz.onzedix.fr"
    },
    "cordova-plugin-statusbar": {
      "PACKAGE_NAME": "boomiz.onzedix.fr"
    },
    "cordova-plugin-vibration": {
      "PACKAGE_NAME": "boomiz.onzedix.fr"
    },
    "cordova-plugin-whitelist": {
      "PACKAGE_NAME": "boomiz.onzedix.fr"
    }
  },
  "dependent_plugins": {},
  "modules": [
    {
      "id": "cordova-plugin-ble.BLE",
      "file": "plugins/cordova-plugin-ble/ble.js",
      "pluginId": "cordova-plugin-ble",
      "clobbers": [
        "evothings.ble"
      ]
    },
    {
      "id": "cordova-plugin-device.device",
      "file": "plugins/cordova-plugin-device/www/device.js",
      "pluginId": "cordova-plugin-device",
      "clobbers": [
        "device"
      ]
    },
    {
      "id": "cordova-plugin-dialogs.notification",
      "file": "plugins/cordova-plugin-dialogs/www/notification.js",
      "pluginId": "cordova-plugin-dialogs",
      "merges": [
        "navigator.notification"
      ]
    },
    {
      "id": "cordova-plugin-shake.Shake",
      "file": "plugins/cordova-plugin-shake/www/shakeNative.js",
      "pluginId": "cordova-plugin-shake",
      "clobbers": [
        "shake"
      ]
    },
    {
      "id": "cordova-plugin-splashscreen.SplashScreen",
      "file": "plugins/cordova-plugin-splashscreen/www/splashscreen.js",
      "pluginId": "cordova-plugin-splashscreen",
      "clobbers": [
        "navigator.splashscreen"
      ]
    },
    {
      "id": "cordova-plugin-statusbar.statusbar",
      "file": "plugins/cordova-plugin-statusbar/www/statusbar.js",
      "pluginId": "cordova-plugin-statusbar",
      "clobbers": [
        "window.StatusBar"
      ]
    },
    {
      "id": "cordova-plugin-vibration.notification",
      "file": "plugins/cordova-plugin-vibration/www/vibration.js",
      "pluginId": "cordova-plugin-vibration",
      "merges": [
        "navigator.notification",
        "navigator"
      ]
    }
  ],
  "plugin_metadata": {
    "cordova-plugin-ble": "2.0.1",
    "cordova-plugin-browsersync": "0.1.7",
    "cordova-plugin-device": "2.0.1",
    "cordova-plugin-dialogs": "2.0.1",
    "cordova-plugin-shake": "0.6.0",
    "cordova-plugin-splashscreen": "5.0.2",
    "cordova-plugin-statusbar": "2.4.1",
    "cordova-plugin-vibration": "3.0.1",
    "cordova-plugin-whitelist": "1.3.3"
  }
}