-- Merging decision tree log ---
manifest
ADDED from /Users/pierrecanthelou/Desktop/OCS/platforms/android/app/src/main/AndroidManifest.xml:2:1-17:12
INJECTED from /Users/pierrecanthelou/Desktop/OCS/platforms/android/app/src/main/AndroidManifest.xml:2:1-17:12
INJECTED from /Users/pierrecanthelou/Desktop/OCS/platforms/android/app/src/main/AndroidManifest.xml:2:1-17:12
INJECTED from /Users/pierrecanthelou/Desktop/OCS/platforms/android/app/src/main/AndroidManifest.xml:2:1-17:12
MERGED from [:CordovaLib] /Users/pierrecanthelou/Desktop/OCS/platforms/android/CordovaLib/build/intermediates/manifests/full/debug/AndroidManifest.xml:20:1-27:12
INJECTED from /Users/pierrecanthelou/Desktop/OCS/platforms/android/app/src/main/AndroidManifest.xml:2:1-17:12
INJECTED from /Users/pierrecanthelou/Desktop/OCS/platforms/android/app/src/main/AndroidManifest.xml:2:1-17:12
INJECTED from /Users/pierrecanthelou/Desktop/OCS/platforms/android/app/src/main/AndroidManifest.xml:2:1-17:12
	package
		ADDED from /Users/pierrecanthelou/Desktop/OCS/platforms/android/app/src/main/AndroidManifest.xml:2:103-130
		INJECTED from /Users/pierrecanthelou/Desktop/OCS/platforms/android/app/src/main/AndroidManifest.xml
		INJECTED from /Users/pierrecanthelou/Desktop/OCS/platforms/android/app/src/main/AndroidManifest.xml
	android:versionName
		ADDED from /Users/pierrecanthelou/Desktop/OCS/platforms/android/app/src/main/AndroidManifest.xml:2:74-102
		INJECTED from /Users/pierrecanthelou/Desktop/OCS/platforms/android/app/src/main/AndroidManifest.xml
		INJECTED from /Users/pierrecanthelou/Desktop/OCS/platforms/android/app/src/main/AndroidManifest.xml
	android:hardwareAccelerated
		ADDED from /Users/pierrecanthelou/Desktop/OCS/platforms/android/app/src/main/AndroidManifest.xml:2:11-45
	xmlns:android
		ADDED from /Users/pierrecanthelou/Desktop/OCS/platforms/android/app/src/main/AndroidManifest.xml:2:131-189
	android:versionCode
		ADDED from /Users/pierrecanthelou/Desktop/OCS/platforms/android/app/src/main/AndroidManifest.xml:2:46-73
		INJECTED from /Users/pierrecanthelou/Desktop/OCS/platforms/android/app/src/main/AndroidManifest.xml
		INJECTED from /Users/pierrecanthelou/Desktop/OCS/platforms/android/app/src/main/AndroidManifest.xml
supports-screens
ADDED from /Users/pierrecanthelou/Desktop/OCS/platforms/android/app/src/main/AndroidManifest.xml:3:5-191
	android:largeScreens
		ADDED from /Users/pierrecanthelou/Desktop/OCS/platforms/android/app/src/main/AndroidManifest.xml:3:49-76
	android:smallScreens
		ADDED from /Users/pierrecanthelou/Desktop/OCS/platforms/android/app/src/main/AndroidManifest.xml:3:132-159
	android:normalScreens
		ADDED from /Users/pierrecanthelou/Desktop/OCS/platforms/android/app/src/main/AndroidManifest.xml:3:77-105
	android:xlargeScreens
		ADDED from /Users/pierrecanthelou/Desktop/OCS/platforms/android/app/src/main/AndroidManifest.xml:3:160-188
	android:resizeable
		ADDED from /Users/pierrecanthelou/Desktop/OCS/platforms/android/app/src/main/AndroidManifest.xml:3:106-131
	android:anyDensity
		ADDED from /Users/pierrecanthelou/Desktop/OCS/platforms/android/app/src/main/AndroidManifest.xml:3:23-48
uses-permission#android.permission.INTERNET
ADDED from /Users/pierrecanthelou/Desktop/OCS/platforms/android/app/src/main/AndroidManifest.xml:4:5-67
	android:name
		ADDED from /Users/pierrecanthelou/Desktop/OCS/platforms/android/app/src/main/AndroidManifest.xml:4:22-64
application
ADDED from /Users/pierrecanthelou/Desktop/OCS/platforms/android/app/src/main/AndroidManifest.xml:5:5-12:19
	android:supportsRtl
		ADDED from /Users/pierrecanthelou/Desktop/OCS/platforms/android/app/src/main/AndroidManifest.xml:5:105-131
	android:label
		ADDED from /Users/pierrecanthelou/Desktop/OCS/platforms/android/app/src/main/AndroidManifest.xml:5:81-104
	android:hardwareAccelerated
		ADDED from /Users/pierrecanthelou/Desktop/OCS/platforms/android/app/src/main/AndroidManifest.xml:5:18-52
	android:icon
		ADDED from /Users/pierrecanthelou/Desktop/OCS/platforms/android/app/src/main/AndroidManifest.xml:5:53-80
activity#boomiz.onzedix.fr.MainActivity
ADDED from /Users/pierrecanthelou/Desktop/OCS/platforms/android/app/src/main/AndroidManifest.xml:6:9-11:20
	android:label
		ADDED from /Users/pierrecanthelou/Desktop/OCS/platforms/android/app/src/main/AndroidManifest.xml:6:97-134
	android:launchMode
		ADDED from /Users/pierrecanthelou/Desktop/OCS/platforms/android/app/src/main/AndroidManifest.xml:6:135-165
	android:windowSoftInputMode
		ADDED from /Users/pierrecanthelou/Desktop/OCS/platforms/android/app/src/main/AndroidManifest.xml:6:257-299
	android:configChanges
		ADDED from /Users/pierrecanthelou/Desktop/OCS/platforms/android/app/src/main/AndroidManifest.xml:6:19-96
	android:theme
		ADDED from /Users/pierrecanthelou/Desktop/OCS/platforms/android/app/src/main/AndroidManifest.xml:6:194-256
	android:name
		ADDED from /Users/pierrecanthelou/Desktop/OCS/platforms/android/app/src/main/AndroidManifest.xml:6:166-193
intent-filter#action:name:android.intent.action.MAIN+category:name:android.intent.category.LAUNCHER
ADDED from /Users/pierrecanthelou/Desktop/OCS/platforms/android/app/src/main/AndroidManifest.xml:7:13-10:29
	android:label
		ADDED from /Users/pierrecanthelou/Desktop/OCS/platforms/android/app/src/main/AndroidManifest.xml:7:28-51
action#android.intent.action.MAIN
ADDED from /Users/pierrecanthelou/Desktop/OCS/platforms/android/app/src/main/AndroidManifest.xml:8:17-69
	android:name
		ADDED from /Users/pierrecanthelou/Desktop/OCS/platforms/android/app/src/main/AndroidManifest.xml:8:25-66
category#android.intent.category.LAUNCHER
ADDED from /Users/pierrecanthelou/Desktop/OCS/platforms/android/app/src/main/AndroidManifest.xml:9:17-77
	android:name
		ADDED from /Users/pierrecanthelou/Desktop/OCS/platforms/android/app/src/main/AndroidManifest.xml:9:27-74
uses-sdk
ADDED from /Users/pierrecanthelou/Desktop/OCS/platforms/android/app/src/main/AndroidManifest.xml:13:5-74
MERGED from [:CordovaLib] /Users/pierrecanthelou/Desktop/OCS/platforms/android/CordovaLib/build/intermediates/manifests/full/debug/AndroidManifest.xml:25:5-44
MERGED from [:CordovaLib] /Users/pierrecanthelou/Desktop/OCS/platforms/android/CordovaLib/build/intermediates/manifests/full/debug/AndroidManifest.xml:25:5-44
	android:targetSdkVersion
		ADDED from /Users/pierrecanthelou/Desktop/OCS/platforms/android/app/src/main/AndroidManifest.xml:13:42-71
	android:minSdkVersion
		ADDED from /Users/pierrecanthelou/Desktop/OCS/platforms/android/app/src/main/AndroidManifest.xml:13:15-41
uses-permission#android.permission.BLUETOOTH
ADDED from /Users/pierrecanthelou/Desktop/OCS/platforms/android/app/src/main/AndroidManifest.xml:14:5-68
	android:name
		ADDED from /Users/pierrecanthelou/Desktop/OCS/platforms/android/app/src/main/AndroidManifest.xml:14:22-65
uses-permission#android.permission.BLUETOOTH_ADMIN
ADDED from /Users/pierrecanthelou/Desktop/OCS/platforms/android/app/src/main/AndroidManifest.xml:15:5-74
	android:name
		ADDED from /Users/pierrecanthelou/Desktop/OCS/platforms/android/app/src/main/AndroidManifest.xml:15:22-71
uses-permission#android.permission.ACCESS_COARSE_LOCATION
ADDED from /Users/pierrecanthelou/Desktop/OCS/platforms/android/app/src/main/AndroidManifest.xml:16:5-81
	android:name
		ADDED from /Users/pierrecanthelou/Desktop/OCS/platforms/android/app/src/main/AndroidManifest.xml:16:22-78
